[
  {
    "request": {
      "body": "{\"content\":\"updated_name\"}",
      "headers": {
        "content-type": "application/json",
        "authorization": "***"
      },
      "method": "post",
      "options": {
        "httpc_options": [],
        "http_options": {
          "autoredirect": "false"
        }
      },
      "request_body": "",
      "url": "https://api.todoist.com/rest/v1/tasks/2651089392"
    },
    "response": {
      "binary": false,
      "body": "Item not found\n",
      "headers": {
        "connection": "keep-alive",
        "date": "Sun, 26 Jan 2020 16:17:57 GMT",
        "via": "1.1 a332ecb068a370997b5e7bc811ff54ea.cloudfront.net (CloudFront)",
        "content-length": "15",
        "content-type": "text/plain; charset=utf-8",
        "x-content-type-options": "nosniff",
        "x-cache": "Error from cloudfront",
        "x-amz-cf-pop": "LHR62-C5",
        "x-amz-cf-id": "EtYp21G7bYZ00yjVKrNdGUuuRt3XD8qQUQynTBuB4IeD-fGLNYG0yA=="
      },
      "status_code": [
        "HTTP/1.1",
        400,
        "Bad Request"
      ],
      "type": "ok"
    }
  }
]