[
  {
    "request": {
      "body": "",
      "headers": {
        "authorization": "***"
      },
      "method": "get",
      "options": {
        "httpc_options": [],
        "http_options": {
          "autoredirect": "false"
        }
      },
      "request_body": "",
      "url": "https://api.todoist.com/rest/v1/tasks"
    },
    "response": {
      "binary": false,
      "body": "[\n\t{\n\t\t\"id\": 3651896093,\n\t\t\"project_id\": 2227397826,\n\t\t\"section_id\": 0,\n\t\t\"order\": 1,\n\t\t\"content\": \"1\",\n\t\t\"completed\": false,\n\t\t\"label_ids\": [],\n\t\t\"priority\": 1,\n\t\t\"comment_count\": 0,\n\t\t\"created\": \"2020-01-26T23:14:15Z\",\n\t\t\"due\": {\n\t\t\t\"recurring\": false,\n\t\t\t\"string\": \"Sty 27\",\n\t\t\t\"date\": \"2020-01-27\"\n\t\t},\n\t\t\"url\": \"https://todoist.com/showTask?id=3651896093\"\n\t},\n\t{\n\t\t\"id\": 3651896094,\n\t\t\"project_id\": 2227397826,\n\t\t\"section_id\": 0,\n\t\t\"order\": 2,\n\t\t\"content\": \"2\",\n\t\t\"completed\": false,\n\t\t\"label_ids\": [],\n\t\t\"priority\": 1,\n\t\t\"comment_count\": 0,\n\t\t\"created\": \"2020-01-26T23:14:15Z\",\n\t\t\"due\": {\n\t\t\t\"recurring\": false,\n\t\t\t\"string\": \"Sty 27\",\n\t\t\t\"date\": \"2020-01-27\"\n\t\t},\n\t\t\"url\": \"https://todoist.com/showTask?id=3651896094\"\n\t},\n\t{\n\t\t\"id\": 3651896096,\n\t\t\"project_id\": 2227397826,\n\t\t\"section_id\": 0,\n\t\t\"order\": 3,\n\t\t\"content\": \"3\",\n\t\t\"completed\": false,\n\t\t\"label_ids\": [],\n\t\t\"priority\": 1,\n\t\t\"comment_count\": 0,\n\t\t\"created\": \"2020-01-26T23:14:15Z\",\n\t\t\"due\": {\n\t\t\t\"recurring\": false,\n\t\t\t\"string\": \"Sty 27\",\n\t\t\t\"date\": \"2020-01-27\"\n\t\t},\n\t\t\"url\": \"https://todoist.com/showTask?id=3651896096\"\n\t}\n]\n",
      "headers": {
        "connection": "keep-alive",
        "date": "Sun, 26 Jan 2020 23:14:17 GMT",
        "via": "1.1 9d11c99c18949c4780bf1400ceca8369.cloudfront.net (CloudFront)",
        "vary": "Accept-Encoding",
        "content-length": "1092",
        "content-type": "application/json",
        "x-cache": "Miss from cloudfront",
        "x-amz-cf-pop": "TXL52-C1",
        "x-amz-cf-id": "pbWPReB7nbVUdhE0D5OxxyO4T7QwcaEZEBapU0sK0jAHuPyOg1DCow=="
      },
      "status_code": [
        "HTTP/1.1",
        200,
        "OK"
      ],
      "type": "ok"
    }
  },
  {
    "request": {
      "body": "",
      "headers": {
        "authorization": "***"
      },
      "method": "get",
      "options": {
        "httpc_options": [],
        "http_options": {
          "autoredirect": "false"
        }
      },
      "request_body": "",
      "url": "https://api.todoist.com/rest/v1/tasks"
    },
    "response": {
      "binary": false,
      "body": "[\n\t{\n\t\t\"id\": 3651896093,\n\t\t\"project_id\": 2227397826,\n\t\t\"section_id\": 0,\n\t\t\"order\": 1,\n\t\t\"content\": \"1\",\n\t\t\"completed\": false,\n\t\t\"label_ids\": [],\n\t\t\"priority\": 1,\n\t\t\"comment_count\": 0,\n\t\t\"created\": \"2020-01-26T23:14:15Z\",\n\t\t\"due\": {\n\t\t\t\"recurring\": false,\n\t\t\t\"string\": \"Sty 27\",\n\t\t\t\"date\": \"2020-01-27\"\n\t\t},\n\t\t\"url\": \"https://todoist.com/showTask?id=3651896093\"\n\t},\n\t{\n\t\t\"id\": 3651896094,\n\t\t\"project_id\": 2227397826,\n\t\t\"section_id\": 0,\n\t\t\"order\": 2,\n\t\t\"content\": \"2 - updated\",\n\t\t\"completed\": false,\n\t\t\"label_ids\": [],\n\t\t\"priority\": 1,\n\t\t\"comment_count\": 0,\n\t\t\"created\": \"2020-01-26T23:14:15Z\",\n\t\t\"due\": {\n\t\t\t\"recurring\": false,\n\t\t\t\"string\": \"Sty 27\",\n\t\t\t\"date\": \"2020-01-27\"\n\t\t},\n\t\t\"url\": \"https://todoist.com/showTask?id=3651896094\"\n\t},\n\t{\n\t\t\"id\": 3651896505,\n\t\t\"project_id\": 2227397826,\n\t\t\"section_id\": 0,\n\t\t\"order\": 3,\n\t\t\"content\": \"4\",\n\t\t\"completed\": false,\n\t\t\"label_ids\": [],\n\t\t\"priority\": 1,\n\t\t\"comment_count\": 0,\n\t\t\"created\": \"2020-01-26T23:14:34Z\",\n\t\t\"due\": {\n\t\t\t\"recurring\": false,\n\t\t\t\"string\": \"Sty 27\",\n\t\t\t\"date\": \"2020-01-27\"\n\t\t},\n\t\t\"url\": \"https://todoist.com/showTask?id=3651896505\"\n\t}\n]\n",
      "headers": {
        "connection": "keep-alive",
        "date": "Sun, 26 Jan 2020 23:15:19 GMT",
        "via": "1.1 e90965fc09a647100bac5d68d2d591f6.cloudfront.net (CloudFront)",
        "vary": "Accept-Encoding",
        "content-length": "1102",
        "content-type": "application/json",
        "x-cache": "Miss from cloudfront",
        "x-amz-cf-pop": "TXL52-C1",
        "x-amz-cf-id": "qnGkRVBmeYyPVuETP-HnT-2duBFybPv0oUCPBc_x0QWLn3aYQhTqKg=="
      },
      "status_code": [
        "HTTP/1.1",
        200,
        "OK"
      ],
      "type": "ok"
    }
  }
]